{
  "pages": [
    {
      "id": "605360bbce93e1003bd6ddd7",
      "uuid": "5a464272-823a-4d85-9d32-3ff131381d4c",
      "title": "About this site",
      "slug": "about",
      "html": "<p>Unlike posts, pages in Ghost don't appear the main feed. They're separate, individual pages which only show up when you link to them. Great for content which is important, but separate from your usual posts.</p><p>An about page is a great example of one you might want to set up early on so people can find out more about you, and what you do. Why should people subscribe to your site and become a member? Details help!</p><blockquote><strong>Tip: </strong>If you're reading any post or page on your site and you notice something you want to edit, you can add <code>/edit</code> to the end of the URL – and you'll be taken directly to the Ghost editor.</blockquote><p>Now tell the world what your site is all about.</p>",
      "comment_id": "60533ff79ac807d54a7ca58b",
      "feature_image": null,
      "featured": false,
      "visibility": "public",
      "created_at": "2021-03-18T11:56:39.000+00:00",
      "updated_at": "2021-03-18T14:22:28.000+00:00",
      "published_at": "2021-03-18T11:56:45.000+00:00",
      "custom_excerpt": null,
      "codeinjection_head": null,
      "codeinjection_foot": null,
      "custom_template": null,
      "canonical_url": null,
      "url": "https://demo.ghost.io/about/",
      "excerpt": "Unlike posts, pages in Ghost don't appear the main feed. They're separate,\nindividual pages which only show up when you link to them. Great for content\nwhich is important, but separate from your usual posts.\n\nAn about page is a great example of one you might want to set up early on so\npeople can find out more about you, and what you do. Why should people subscribe\nto your site and become a member? Details help!\n\n> Tip: If you're reading any post or page on your site and you notice something\nyou ",
      "reading_time": 0,
      "page": true,
      "access": true,
      "og_image": null,
      "og_title": null,
      "og_description": null,
      "twitter_image": null,
      "twitter_title": null,
      "twitter_description": null,
      "meta_title": null,
      "meta_description": null,
      "frontmatter": null,
      "authors": [
        {
          "id": "1",
          "name": "John Doe",
          "slug": "john",
          "email": "john.doe@gmail.com",
          "profile_image": "//www.gravatar.com/avatar/27ed9a6b4ca3868b57150e24f08537d3?s=250&d=mm&r=x",
          "cover_image": null,
          "bio": null,
          "website": null,
          "location": null,
          "facebook": null,
          "twitter": null,
          "accessibility": "{\"nightShift\":true}",
          "status": "active",
          "meta_title": null,
          "meta_description": null,
          "tour": null,
          "last_seen": "2022-05-19T06:46:44.000Z",
          "created_at": "2021-10-30T20:34:20.000Z",
          "updated_at": "2022-05-19T06:46:44.000Z",
          "roles": [
            {
              "id": "617dac4ce01e977921bf8256",
              "name": "Owner",
              "description": "Blog Owner",
              "created_at": "2021-10-30T20:34:20.000Z",
              "updated_at": "2021-10-30T20:34:20.000Z"
            }
          ],
          "url": "http:\/\/localhost:2370\/author\/john\/"
        }
      ],
      "primary_author": {
        "id": "1",
        "name": "John Doe",
        "slug": "john",
        "email": "john.doe@gmail.com",
        "profile_image": "//www.gravatar.com/avatar/27ed9a6b4ca3868b57150e24f08537d3?s=250&d=mm&r=x",
        "cover_image": null,
        "bio": null,
        "website": null,
        "location": null,
        "facebook": null,
        "twitter": null,
        "accessibility": "{\"nightShift\":true}",
        "status": "active",
        "meta_title": null,
        "meta_description": null,
        "tour": null,
        "last_seen": "2022-05-19T06:46:44.000Z",
        "created_at": "2021-10-30T20:34:20.000Z",
        "updated_at": "2022-05-19T06:46:44.000Z",
        "roles": [
          {
            "id": "617dac4ce01e977921bf8256",
            "name": "Owner",
            "description": "Blog Owner",
            "created_at": "2021-10-30T20:34:20.000Z",
            "updated_at": "2021-10-30T20:34:20.000Z"
          }
        ],
        "url": "http:\/\/localhost:2370\/author\/john\/"
      },
      "tags": [
        {
          "id": "617dac4ce01e97a921bf8253",
          "name": "Guides",
          "slug": "guides-2",
          "description": null,
          "feature_image": null,
          "visibility": "public",
          "og_image": null,
          "og_title": null,
          "og_description": null,
          "twitter_image": null,
          "twitter_title": null,
          "twitter_description": null,
          "meta_title": null,
          "meta_description": null,
          "codeinjection_head": null,
          "codeinjection_foot": null,
          "canonical_url": null,
          "accent_color": null,
          "created_at": "2021-10-30T20:34:20.000Z",
          "updated_at": "2021-12-19T19:24:07.000Z",
          "url": "http://localhost:2370/tag/guides-2/"
        },
        {
          "id": "6180c4f2e539ec445ca2facj",
          "name": "#Frameworks",
          "slug": "frameworks",
          "description": null,
          "feature_image": "http://localhost:2370/content/images/2021/11/frameworks.svg",
          "visibility": "internal",
          "og_image": null,
          "og_title": null,
          "og_description": null,
          "twitter_image": null,
          "twitter_title": null,
          "twitter_description": null,
          "meta_title": null,
          "meta_description": null,
          "codeinjection_head": null,
          "codeinjection_foot": null,
          "canonical_url": null,
          "accent_color": "#FF2D1F",
          "created_at": "2021-11-02T04:56:18.000Z",
          "updated_at": "2021-12-03T04:25:11.000Z",
          "url": "http://localhost:2370/404/"
        }
      ],
      "primary_tag": null
    },
    {
      "id": "605360bbce93e1003bd6ddd8",
      "uuid": "72e3b873-56a8-4aae-be67-c1bc9a1c485c",
      "title": "Contact",
      "slug": "contact",
      "html": "<p>If you want to set up a contact page for people to be able to reach out to you, the simplest way is to set up a simple page like this and list the different ways people can reach out to you.</p><h3 id=\"for-example-heres-how-to-reach-us\">For example, here's how to reach us!</h3><ul><li><a href=\"https://twitter.com/ghost\">@Ghost</a> on Twitter</li><li><a href=\"https://www.facebook.com/ghost\">@Ghost</a> on Facebook</li><li><a href=\"https://instagram.com/ghost\">@Ghost</a> on Instagram</li></ul><p>If you prefer to use a contact form, almost all of the great embedded form services work great with Ghost and are easy to set up:</p><figure class=\"kg-card kg-image-card\"><a href=\"https://ghost.org/integrations/?tag=forms\"><img src=\"https://static.ghost.org/v4.0.0/images/integrations.png\" class=\"kg-image\" alt loading=\"lazy\" width=\"2944\" height=\"1716\"></a></figure>",
      "comment_id": "60533ff79ac807d54a7ca58d",
      "feature_image": null,
      "featured": false,
      "visibility": "public",
      "created_at": "2021-03-18T11:56:39.000+00:00",
      "updated_at": "2021-03-18T14:22:13.000+00:00",
      "published_at": "2021-03-18T11:56:46.000+00:00",
      "custom_excerpt": null,
      "codeinjection_head": null,
      "codeinjection_foot": null,
      "custom_template": null,
      "canonical_url": null,
      "url": "https://demo.ghost.io/contact/",
      "excerpt": "If you want to set up a contact page for people to be able to reach out to you,\nthe simplest way is to set up a simple page like this and list the different\nways people can reach out to you.\n\nFor example, here's how to reach us!\n * @Ghost [https://twitter.com/ghost] on Twitter\n * @Ghost [https://www.facebook.com/ghost] on Facebook\n * @Ghost [https://instagram.com/ghost] on Instagram\n\nIf you prefer to use a contact form, almost all of the great embedded form\nservices work great with Ghost and are",
      "reading_time": 1,
      "page": true,
      "access": true,
      "og_image": null,
      "og_title": null,
      "og_description": null,
      "twitter_image": null,
      "twitter_title": null,
      "twitter_description": null,
      "meta_title": null,
      "meta_description": null,
      "frontmatter": null
    }
  ],
  "meta": {
    "pagination": {
      "page": 1,
      "limit": 2,
      "pages": 4,
      "total": 7,
      "next": 2,
      "prev": null
    }
  }
}
