{
  "posts": [
    {
      "id": "617dac4de01e957921bf82c1",
      "uuid": "acb3bca6-f01d-4cd4-8d74-227887ab584f",
      "title": "Customizing your brand and design settings",
      "slug": "design",
      "mobiledoc": "{\"version\":\"0.3.1\",\"atoms\":[],\"cards\":[[\"image\",{\"src\":\"https://static.ghost.org/v4.0.0/images/brandsettings.png\",\"width\":3456,\"height\":2338,\"cardWidth\":\"wide\",\"caption\":\"Ghost Admin → Settings → Branding\"}],[\"image\",{\"src\":\"https://static.ghost.org/v4.0.0/images/themesettings.png\",\"width\":3208,\"height\":1618,\"cardWidth\":\"wide\",\"caption\":\"Ghost Admin → Settings → Theme\"}],[\"code\",{\"code\":\"{{#post}}\\n<article class=\\\"article {{post_class}}\\\">\\n\\n    <h1>{{title}}</h1>\\n    \\n    {{#if feature_image}}\\n    \\t<img src=\\\"{{feature_image}}\\\" alt=\\\"Feature image\\\" />\\n    {{/if}}\\n    \\n    {{content}}\\n\\n</article>\\n{{/post}}\",\"language\":\"handlebars\",\"caption\":\"A snippet from a post template\"}]],\"markups\":[[\"a\",[\"href\",\"http://localhost:2370/welcome/\"]],[\"strong\"],[\"em\"],[\"a\",[\"href\",\"https://ghost.org/themes/\"]],[\"a\",[\"href\",\"https://github.com/tryghost/casper/\"]],[\"a\",[\"href\",\"https://ghost.org/docs/themes/\"]]],\"sections\":[[1,\"p\",[[0,[],0,\"As discussed in the \"],[0,[0],1,\"introduction\"],[0,[],0,\" post, one of the best things about Ghost is just how much you can customize to turn your site into something unique. Everything about your layout and design can be changed, so you're not stuck with yet another clone of a social network profile.\"]]],[1,\"p\",[[0,[],0,\"How far you want to go with customization is completely up to you, there's no right or wrong approach! The majority of people use one of Ghost's built-in themes to get started, and then progress to something more bespoke later on as their site grows. \"]]],[1,\"p\",[[0,[],0,\"The best way to get started is with Ghost's branding settings, where you can set up colors, images and logos to fit with your brand.\"]]],[10,0],[1,\"p\",[[0,[],0,\"Any Ghost theme that's up to date and compatible with Ghost 4.0 and higher will reflect your branding settings in the preview window, so you can see what your site will look like as you experiment with different options.\"]]],[1,\"p\",[[0,[],0,\"When selecting an accent color, try to choose something which will contrast well with white text. Many themes will use your accent color as the background for buttons, headers and navigational elements. Vibrant colors with a darker hue tend to work best, as a general rule.\"]]],[1,\"h2\",[[0,[],0,\"Installing Ghost themes\"]]],[1,\"p\",[[0,[],0,\"By default, new sites are created with Ghost's friendly publication theme, called Casper. Everything in Casper is optimized to work for the most common types of blog, newsletter and publication that people create with Ghost — so it's a perfect place to start.\"]]],[1,\"p\",[[0,[],0,\"However, there are hundreds of different themes available to install, so you can pick out a look and feel that suits you best.\"]]],[10,1],[1,\"p\",[[0,[],0,\"Inside Ghost's theme settings you'll find 4 more official themes that can be directly installed and activated. Each theme is suited to slightly different use-cases.\"]]],[3,\"ul\",[[[0,[1],1,\"Casper\"],[0,[],0,\" \"],[0,[2],1,\"(default)\"],[0,[],0,\" — Made for all sorts of blogs and newsletters\"]],[[0,[1],1,\"Edition\"],[0,[],0,\" — A beautiful minimal template for newsletter authors\"]],[[0,[1],1,\"Alto\"],[0,[],0,\" — A slick news/magazine style design for creators\"]],[[0,[1],1,\"London\"],[0,[],0,\" — A light photography theme with a bold grid\"]],[[0,[1],1,\"Ease\"],[0,[],0,\" — A library theme for organizing large content archives\"]]]],[1,\"p\",[[0,[],0,\"And if none of those feel quite right, head on over to the \"],[0,[3],1,\"Ghost Marketplace\"],[0,[],0,\", where you'll find a huge variety of both free and premium themes.\"]]],[1,\"h2\",[[0,[],0,\"Building something custom\"]]],[1,\"p\",[[0,[],0,\"Finally, if you want something completely bespoke for your site, you can always build a custom theme from scratch and upload it to your site.\"]]],[1,\"p\",[[0,[],0,\"Ghost's theming template files are very easy to work with, and can be picked up in the space of a few hours by anyone who has just a little bit of knowledge of HTML and CSS. Templates from other platforms can also be ported to Ghost with relatively little effort.\"]]],[1,\"p\",[[0,[],0,\"If you want to take a quick look at the theme syntax to see what it's like, you can \"],[0,[4],1,\"browse through the files of the default Casper theme\"],[0,[],0,\". We've added tons of inline code comments to make it easy to learn, and the structure is very readable.\"]]],[10,2],[1,\"p\",[[0,[],0,\"See? Not that scary! But still completely optional. \"]]],[1,\"p\",[[0,[],0,\"If you're interested in creating your own Ghost theme, check out our extensive \"],[0,[5],1,\"theme documentation\"],[0,[],0,\" for a full guide to all the different template variables and helpers which are available.\"]]]],\"ghostVersion\":\"4.0\"}",
      "comment_id": "617dac4de01e957921bf82c1",
      "feature_image": "https://static.ghost.org/v4.0.0/images/publishing-options.png",
      "featured": false,
      "status": "published",
      "visibility": "public",
      "email_recipient_filter": "none",
      "created_at": "2021-10-30T20:34:21.000Z",
      "updated_at": "2021-10-30T20:34:21.000Z",
      "published_at": "2021-10-30T20:34:26.000Z",
      "custom_excerpt": "How to tweak a few settings in Ghost to transform your site from a generic template to a custom brand with style and personality.",
      "codeinjection_head": null,
      "codeinjection_foot": null,
      "custom_template": null,
      "canonical_url": null,
      "tags": [
        {
          "id": "6180c3b8e539ec425ca2fac3",
          "name": "Packages",
          "slug": "packages",
          "description": "Packages are cool and reusable things!",
          "feature_image": null,
          "visibility": "public",
          "og_image": null,
          "og_title": null,
          "og_description": null,
          "twitter_image": null,
          "twitter_title": null,
          "twitter_description": null,
          "meta_title": null,
          "meta_description": null,
          "codeinjection_head": null,
          "codeinjection_foot": null,
          "canonical_url": null,
          "accent_color": null,
          "created_at": "2021-11-02T04:51:04.000Z",
          "updated_at": "2021-11-02T04:51:04.000Z",
          "url": "http://localhost:2370/tag/packages/"
        },
        {
          "id": "618de8c7dc0eda6b72792bc6",
          "name": "#alpine",
          "slug": "alpine",
          "description": null,
          "feature_image": "http://localhost:2370/content/images/2021/11/alpine.svg",
          "visibility": "internal",
          "og_image": null,
          "og_title": null,
          "og_description": null,
          "twitter_image": null,
          "twitter_title": null,
          "twitter_description": null,
          "meta_title": null,
          "meta_description": null,
          "codeinjection_head": null,
          "codeinjection_foot": null,
          "canonical_url": null,
          "accent_color": "#74A0AC",
          "created_at": "2021-11-12T04:08:39.000Z",
          "updated_at": "2021-12-03T04:09:43.000Z",
          "url": "http://localhost:2370/404/"
        }
      ],
      "authors": [
        {
          "id": "5951f5fca264002abd5dbef8",
          "name": "Ghost",
          "slug": "ghost",
          "email": "ghost-author@example.com",
          "profile_image": "https://static.ghost.org/v4.0.0/images/ghost-user.png",
          "cover_image": null,
          "bio": "You can delete this user to remove all the welcome posts",
          "website": "https://ghost.org",
          "location": "The Internet",
          "facebook": "ghost",
          "twitter": "ghost",
          "accessibility": null,
          "status": "active",
          "meta_title": null,
          "meta_description": null,
          "tour": null,
          "last_seen": null,
          "created_at": "2021-10-30T20:34:21.000Z",
          "updated_at": "2021-10-30T20:34:21.000Z",
          "roles": [
            {
              "id": "617dac4ce01e677921bf8253",
              "name": "Contributor",
              "description": "Contributors",
              "created_at": "2021-10-30T20:34:20.000Z",
              "updated_at": "2021-10-30T20:34:20.000Z"
            }
          ],
          "url": "http://localhost:2370/author/ghost/"
        },
        {
          "id": "1",
          "name": "John Doe",
          "slug": "john",
          "email": "john.doe@gmail.com",
          "profile_image": "//www.gravatar.com/avatar/2bfa103a13c88b5ffd26da6f982f11df?s=250&d=mm&r=x",
          "cover_image": null,
          "bio": null,
          "website": null,
          "location": null,
          "facebook": null,
          "twitter": null,
          "accessibility": "{\"nightShift\":true}",
          "status": "active",
          "meta_title": null,
          "meta_description": null,
          "tour": null,
          "last_seen": "2022-04-24T08:37:32.000Z",
          "created_at": "2021-10-30T20:34:20.000Z",
          "updated_at": "2022-04-24T08:37:32.000Z",
          "roles": [
            {
              "id": "617dac4ce01e977921bf82a1",
              "name": "Owner",
              "description": "Blog Owner",
              "created_at": "2021-10-30T20:34:20.000Z",
              "updated_at": "2021-10-30T20:34:20.000Z"
            }
          ],
          "url": "http://localhost:2370/author/joe/"
        }
      ],
      "tiers": [],
      "primary_author": {
        "id": "5951f5fca264002abd5dbef8",
        "name": "Ghost",
        "slug": "ghost",
        "email": "ghost-author@example.com",
        "profile_image": "https://static.ghost.org/v4.0.0/images/ghost-user.png",
        "cover_image": null,
        "bio": "You can delete this user to remove all the welcome posts",
        "website": "https://ghost.org",
        "location": "The Internet",
        "facebook": "ghost",
        "twitter": "ghost",
        "accessibility": null,
        "status": "active",
        "meta_title": null,
        "meta_description": null,
        "tour": null,
        "last_seen": null,
        "created_at": "2021-10-30T20:34:21.000Z",
        "updated_at": "2021-10-30T20:34:21.000Z",
        "roles": [
          {
            "id": "617dac4ce01e677921bf8253",
            "name": "Contributor",
            "description": "Contributors",
            "created_at": "2021-10-30T20:34:20.000Z",
            "updated_at": "2021-10-30T20:34:20.000Z"
          }
        ],
        "url": "http://localhost:2370/author/ghost/"
      },
      "primary_tag": {
        "id": "6180c3b8e539ec425ca2fac3",
        "name": "Packages",
        "slug": "packages",
        "description": "Packages are cool and reusable things!",
        "feature_image": null,
        "visibility": "public",
        "og_image": null,
        "og_title": null,
        "og_description": null,
        "twitter_image": null,
        "twitter_title": null,
        "twitter_description": null,
        "meta_title": null,
        "meta_description": null,
        "codeinjection_head": null,
        "codeinjection_foot": null,
        "canonical_url": null,
        "accent_color": null,
        "created_at": "2021-11-02T04:51:04.000Z",
        "updated_at": "2021-11-02T04:51:04.000Z",
        "url": "http://localhost:2370/tag/packages/"
      },
      "url": "http://localhost:2370/design/",
      "excerpt": "How to tweak a few settings in Ghost to transform your site from a generic template to a custom brand with style and personality.",
      "og_image": null,
      "og_title": null,
      "og_description": null,
      "twitter_image": null,
      "twitter_title": null,
      "twitter_description": null,
      "meta_title": null,
      "meta_description": null,
      "email_subject": null,
      "frontmatter": null,
      "feature_image_alt": null,
      "feature_image_caption": null,
      "email_only": false,
      "email": null
    },
    {
      "id": "617dac4de01e977921bf82bf",
      "uuid": "a0c42cdf-45d6-4989-bc53-5117b5d587d9",
      "title": "Writing and managing content in Ghost, an advanced guide",
      "slug": "write",
      "mobiledoc": "{\"version\":\"0.3.1\",\"atoms\":[],\"cards\":[[\"image\",{\"src\":\"https://static.ghost.org/v4.0.0/images/editor.png\",\"width\":3182,\"height\":1500,\"cardWidth\":\"wide\",\"caption\":\"The Ghost editor. Also available in dark-mode, for late night writing sessions.\"}],[\"bookmark\",{\"type\":\"bookmark\",\"url\":\"https://opensubscriptionplatforms.com/\",\"metadata\":{\"url\":\"https://opensubscriptionplatforms.com\",\"title\":\"Open Subscription Platforms\",\"description\":\"A shared movement for independent subscription data.\",\"author\":null,\"publisher\":\"Open Subscription Platforms\",\"thumbnail\":\"https://opensubscriptionplatforms.com/images/osp-card.png\",\"icon\":\"https://opensubscriptionplatforms.com/images/favicon.png\"}}],[\"embed\",{\"url\":\"https://www.youtube.com/watch?v=hmH3XMlms8E\",\"html\":\"<iframe width=\\\"200\\\" height=\\\"113\\\" src=\\\"https://www.youtube.com/embed/hmH3XMlms8E?feature=oembed\\\" frameborder=\\\"0\\\" allow=\\\"accelerometer; autoplay; clipboard-write; encrypted-media; gyroscope; picture-in-picture\\\" allowfullscreen></iframe>\",\"type\":\"video\",\"metadata\":{\"title\":\"\\\"VELA\\\" Episode 1 of 4 | John John Florence\",\"author_name\":\"John John Florence\",\"author_url\":\"https://www.youtube.com/c/JJF\",\"height\":113,\"width\":200,\"version\":\"1.0\",\"provider_name\":\"YouTube\",\"provider_url\":\"https://www.youtube.com/\",\"thumbnail_height\":360,\"thumbnail_width\":480,\"thumbnail_url\":\"https://i.ytimg.com/vi/hmH3XMlms8E/hqdefault.jpg\"}}],[\"image\",{\"src\":\"https://static.ghost.org/v4.0.0/images/andreas-selter-xSMqGH7gi6o-unsplash.jpg\",\"width\":6000,\"height\":4000,\"cardWidth\":\"full\",\"caption\":\"\"}],[\"gallery\",{\"images\":[{\"fileName\":\"andreas-selter-e4yK8QQlZa0-unsplash.jpg\",\"row\":0,\"width\":4572,\"height\":3048,\"src\":\"https://static.ghost.org/v4.0.0/images/andreas-selter-e4yK8QQlZa0-unsplash.jpg\"},{\"fileName\":\"steve-carter-Ixp4YhCKZkI-unsplash.jpg\",\"row\":0,\"width\":4032,\"height\":2268,\"src\":\"https://static.ghost.org/v4.0.0/images/steve-carter-Ixp4YhCKZkI-unsplash.jpg\"}],\"caption\":\"\"}],[\"image\",{\"src\":\"https://static.ghost.org/v4.0.0/images/lukasz-szmigiel-jFCViYFYcus-unsplash.jpg\",\"width\":2560,\"height\":1705,\"cardWidth\":\"wide\"}],[\"gallery\",{\"images\":[{\"fileName\":\"jd-mason-hPiEFq6-Eto-unsplash.jpg\",\"row\":0,\"width\":5184,\"height\":3888,\"src\":\"https://static.ghost.org/v4.0.0/images/jd-mason-hPiEFq6-Eto-unsplash.jpg\"},{\"fileName\":\"jp-valery-OBpOP9GVH9U-unsplash.jpg\",\"row\":0,\"width\":5472,\"height\":3648,\"src\":\"https://static.ghost.org/v4.0.0/images/jp-valery-OBpOP9GVH9U-unsplash.jpg\"}],\"caption\":\"Peaceful places\"}],[\"image\",{\"src\":\"https://static.ghost.org/v4.0.0/images/createsnippet.png\",\"width\":2282,\"height\":1272,\"cardWidth\":\"wide\"}],[\"hr\",{}],[\"image\",{\"src\":\"https://static.ghost.org/v4.0.0/images/preview.png\",\"width\":3166,\"height\":2224,\"cardWidth\":\"wide\"}],[\"hr\",{}]],\"markups\":[[\"em\"],[\"code\"]],\"sections\":[[1,\"p\",[[0,[],0,\"Ghost comes with a best-in-class editor which does its very best to get out of the way, and let you focus on your content. Don't let its minimal looks fool you, though, beneath the surface lies a powerful editing toolset designed to accommodate the extensive needs of modern creators.\"]]],[1,\"p\",[[0,[],0,\"For many, the base canvas of the Ghost editor will feel familiar. You can start writing as you would expect, highlight content to access the toolbar you would expect, and generally use all of the keyboard shortcuts you would expect.\"]]],[1,\"p\",[[0,[],0,\"Our main focus in building the Ghost editor is to try and make as many things that you hope/expect might work: actually work. \"]]],[3,\"ul\",[[[0,[],0,\"You can copy and paste raw content from web pages, and Ghost will do its best to correctly preserve the formatting. \"]],[[0,[],0,\"Pasting an image from your clipboard will upload inline.\"]],[[0,[],0,\"Pasting a social media URL will automatically create an embed.\"]],[[0,[],0,\"Highlight a word in the editor and paste a URL from your clipboard on top: Ghost will turn it into a link.\"]],[[0,[],0,\"You can also paste (or write!) Markdown and Ghost will usually be able to auto-convert it into fully editable, formatted content.\"]]]],[10,0],[1,\"p\",[[0,[],0,\"The goal, as much as possible, is for things to work so that you don't have to \"],[0,[0],1,\"think\"],[0,[],0,\" so much about the editor. You won't find any disastrous \\\"block builders\\\" here, where you have to open 6 submenus and choose from 18 different but identical alignment options. That's not what Ghost is about.\"]]],[1,\"p\",[[0,[],0,\"What you will find though, is dynamic cards which allow you to embed rich media into your posts and create beautifully laid out stories.\"]]],[1,\"h2\",[[0,[],0,\"Using cards\"]]],[1,\"p\",[[0,[],0,\"You can insert dynamic cards inside post content using the \"],[0,[1],1,\"+\"],[0,[],0,\" button, which appears on new lines, or by typing \"],[0,[1],1,\"/\"],[0,[],0,\" on a new line to trigger the card menu. Many of the choices are simple and intuitive, like bookmark cards, which allow you to create rich links with embedded structured data:\"]]],[10,1],[1,\"p\",[[0,[],0,\"or embed cards which make it easy to insert content you want to share with your audience, from external services:\"]]],[10,2],[1,\"p\",[[0,[],0,\"But, dig a little deeper, and you'll also find more advanced cards, like one that only shows up in email newsletters (great for personalized introductions) and a comprehensive set of specialized cards for different types of images and galleries.\"]]],[1,\"blockquote\",[[0,[],0,\"Once you  start mixing text and image cards creatively, the whole narrative of the story changes. Suddenly, you're working in a new format.\"]]],[10,3],[1,\"p\",[[0,[],0,\"As it turns out, sometimes pictures and a thousand words go together really well. Telling people a great story often has much more impact if they can feel, even for a moment, as though they were right there with you.\"]]],[10,4],[10,5],[10,6],[1,\"p\",[[0,[],0,\"Galleries and image cards can be combined in so many different ways — the only limit is your imagination.\"]]],[1,\"h2\",[[0,[],0,\"Build workflows with snippets\"]]],[1,\"p\",[[0,[],0,\"One of the most powerful features of the Ghost editor is the ability to create and re-use content snippets. If you've ever used an email client with a concept of \"],[0,[0],1,\"saved replies\"],[0,[],0,\" then this will be immediately intuitive.\"]]],[1,\"p\",[[0,[],0,\"To create a snippet, select a piece of content in the editor that you'd like to re-use in future, then click on the snippet icon in the toolbar. Give your snippet a name, and you're all done. Now your snippet will be available from within the card menu, or you can search for it directly using the \"],[0,[1],1,\"/\"],[0,[],0,\" command.\"]]],[1,\"p\",[[0,[],0,\"This works really well for saving images you might want to use often, like a company logo or team photo, links to resources you find yourself often linking to, or introductions and passages that you want to remember.\"]]],[10,7],[1,\"p\",[[0,[],0,\"You can even build entire post templates or outlines to create a quick, re-usable workflow for publishing over time. Or build custom design elements for your post with an HTML card, and use a snippet to insert it.\"]]],[1,\"p\",[[0,[],0,\"Once you get a few useful snippets set up, it's difficult to go back to the old way of diving through media libraries and trawling for that one thing you know you used somewhere that one time.\"]]],[10,8],[1,\"h2\",[[0,[],0,\"Publishing and newsletters the easy way\"]]],[1,\"p\",[[0,[],0,\"When you're ready to publish, Ghost makes it as simple as possible to deliver your new post to all your existing members. Just hit the \"],[0,[0],1,\"Preview\"],[0,[],0,\" link and you'll get a chance to see what your content looks like on Web, Mobile, Email and Social.\"]]],[10,9],[1,\"p\",[[0,[],0,\"You can send yourself a test newsletter to make sure everything looks good in your email client, and then hit the \"],[0,[0],1,\"Publish\"],[0,[],0,\" button to decide who to deliver it to.\"]]],[1,\"p\",[[0,[],0,\"Ghost comes with a streamlined, optimized email newsletter template that has settings built-in for you to customize the colors and typography. We've spent countless hours refining the template to make sure it works great across all email clients, and performs well for email deliverability.\"]]],[1,\"p\",[[0,[],0,\"So, you don't need to fight the awful process of building a custom email template from scratch. It's all done already!\"]]],[10,10],[1,\"p\",[[0,[],0,\"The Ghost editor is powerful enough to do whatever you want it to do. With a little exploration, you'll be up and running in no time.\"]]]],\"ghostVersion\":\"4.0\"}",
      "comment_id": "617dac4de01e977921bf82bf",
      "feature_image": "https://static.ghost.org/v4.0.0/images/writing-posts-with-ghost.png",
      "featured": false,
      "status": "published",
      "visibility": "public",
      "email_recipient_filter": "none",
      "created_at": "2021-10-30T20:34:21.000Z",
      "updated_at": "2021-10-30T20:34:21.000Z",
      "published_at": "2021-10-30T20:34:25.000Z",
      "custom_excerpt": "A full overview of all the features built into the Ghost editor, including powerful workflow automations to speed up your creative process.",
      "codeinjection_head": null,
      "codeinjection_foot": null,
      "custom_template": null,
      "canonical_url": null,
      "tags": [
        {
          "id": "6180c3f4e539ec445ba2fac4",
          "name": "Series",
          "slug": "series",
          "description": null,
          "feature_image": null,
          "visibility": "public",
          "og_image": null,
          "og_title": null,
          "og_description": null,
          "twitter_image": null,
          "twitter_title": null,
          "twitter_description": null,
          "meta_title": null,
          "meta_description": null,
          "codeinjection_head": null,
          "codeinjection_foot": null,
          "canonical_url": null,
          "accent_color": null,
          "created_at": "2021-11-02T04:52:04.000Z",
          "updated_at": "2021-11-02T04:52:04.000Z",
          "url": "http://localhost:2370/tag/series/"
        },
        {
          "id": "618df582dc0ed06172792bd9",
          "name": "#akw",
          "slug": "akw",
          "description": null,
          "feature_image": "http://localhost:2370/content/images/2021/11/akw.svg",
          "visibility": "internal",
          "og_image": null,
          "og_title": null,
          "og_description": null,
          "twitter_image": null,
          "twitter_title": null,
          "twitter_description": null,
          "meta_title": null,
          "meta_description": null,
          "codeinjection_head": null,
          "codeinjection_foot": null,
          "canonical_url": null,
          "accent_color": "#FF9900",
          "created_at": "2021-11-12T05:02:58.000Z",
          "updated_at": "2021-11-12T05:02:58.000Z",
          "url": "http://localhost:2370/404/"
        }
      ],
      "authors": [
        {
          "id": "5951f5fca264002abd5dbef8",
          "name": "Ghost",
          "slug": "ghost",
          "email": "ghost-author@example.com",
          "profile_image": "https://static.ghost.org/v4.0.0/images/ghost-user.png",
          "cover_image": null,
          "bio": "You can delete this user to remove all the welcome posts",
          "website": "https://ghost.org",
          "location": "The Internet",
          "facebook": "ghost",
          "twitter": "ghost",
          "accessibility": null,
          "status": "active",
          "meta_title": null,
          "meta_description": null,
          "tour": null,
          "last_seen": null,
          "created_at": "2021-10-30T20:34:21.000Z",
          "updated_at": "2021-10-30T20:34:21.000Z",
          "roles": [
            {
              "id": "617dac4ce01e677921bf8253",
              "name": "Contributor",
              "description": "Contributors",
              "created_at": "2021-10-30T20:34:20.000Z",
              "updated_at": "2021-10-30T20:34:20.000Z"
            }
          ],
          "url": "http://localhost:2370/author/ghost/"
        },
        {
          "id": "1",
          "name": "John Doe",
          "slug": "john",
          "email": "john.doe@gmail.com",
          "profile_image": "//www.gravatar.com/avatar/2bfa103a13c88b5ffd26da6f982f11df?s=250&d=mm&r=x",
          "cover_image": null,
          "bio": null,
          "website": null,
          "location": null,
          "facebook": null,
          "twitter": null,
          "accessibility": "{\"nightShift\":true}",
          "status": "active",
          "meta_title": null,
          "meta_description": null,
          "tour": null,
          "last_seen": "2022-04-24T08:37:32.000Z",
          "created_at": "2021-10-30T20:34:20.000Z",
          "updated_at": "2022-04-24T08:37:32.000Z",
          "roles": [
            {
              "id": "617dac4ce01e977921bf82a1",
              "name": "Owner",
              "description": "Blog Owner",
              "created_at": "2021-10-30T20:34:20.000Z",
              "updated_at": "2021-10-30T20:34:20.000Z"
            }
          ],
          "url": "http://localhost:2370/author/joe/"
        }
      ],
      "tiers": [],
      "primary_author": {
        "id": "5951f5fca264002abd5dbef8",
        "name": "Ghost",
        "slug": "ghost",
        "email": "ghost-author@example.com",
        "profile_image": "https://static.ghost.org/v4.0.0/images/ghost-user.png",
        "cover_image": null,
        "bio": "You can delete this user to remove all the welcome posts",
        "website": "https://ghost.org",
        "location": "The Internet",
        "facebook": "ghost",
        "twitter": "ghost",
        "accessibility": null,
        "status": "active",
        "meta_title": null,
        "meta_description": null,
        "tour": null,
        "last_seen": null,
        "created_at": "2021-10-30T20:34:21.000Z",
        "updated_at": "2021-10-30T20:34:21.000Z",
        "roles": [
          {
            "id": "617dac4ce01e677921bf8253",
            "name": "Contributor",
            "description": "Contributors",
            "created_at": "2021-10-30T20:34:20.000Z",
            "updated_at": "2021-10-30T20:34:20.000Z"
          }
        ],
        "url": "http://localhost:2370/author/ghost/"
      },
      "primary_tag": {
        "id": "6180c3f4e539ec445ba2fac4",
        "name": "Series",
        "slug": "series",
        "description": null,
        "feature_image": null,
        "visibility": "public",
        "og_image": null,
        "og_title": null,
        "og_description": null,
        "twitter_image": null,
        "twitter_title": null,
        "twitter_description": null,
        "meta_title": null,
        "meta_description": null,
        "codeinjection_head": null,
        "codeinjection_foot": null,
        "canonical_url": null,
        "accent_color": null,
        "created_at": "2021-11-02T04:52:04.000Z",
        "updated_at": "2021-11-02T04:52:04.000Z",
        "url": "http://localhost:2370/tag/series/"
      },
      "url": "http://localhost:2370/write/",
      "excerpt": "A full overview of all the features built into the Ghost editor, including powerful workflow automations to speed up your creative process.",
      "og_image": null,
      "og_title": null,
      "og_description": null,
      "twitter_image": null,
      "twitter_title": null,
      "twitter_description": null,
      "meta_title": null,
      "meta_description": null,
      "email_subject": null,
      "frontmatter": null,
      "feature_image_alt": null,
      "feature_image_caption": null,
      "email_only": false,
      "email": null
    }
  ],
  "meta": {
    "pagination": {
      "page": 2,
      "limit": 2,
      "pages": 4,
      "total": 7,
      "next": 3,
      "prev": 1
    }
  }
}
