{
  "posts": [
    {
      "id": "626106438c3e1e2313c48715",
      "uuid": "a457846d-0272-41d5-9c52-979c44dceb3b",
      "title": "My test post",
      "slug": "my-test-post",
      "mobiledoc": "{\"version\":\"0.3.1\",\"atoms\":[],\"cards\":[],\"markups\":[],\"sections\":[[1,\"p\",[[0,[],0,\"My post content. Work in progress...\"]]]]}",
      "comment_id": "626106438c3e1e2313c48715",
      "feature_image": null,
      "featured": false,
      "status": "published",
      "visibility": "public",
      "email_recipient_filter": "none",
      "created_at": "2022-04-21T07:22:43.000Z",
      "updated_at": "2022-04-21T07:22:43.000Z",
      "published_at": "2022-04-21T07:22:43.000Z",
      "custom_excerpt": null,
      "codeinjection_head": null,
      "codeinjection_foot": null,
      "custom_template": null,
      "canonical_url": null,
      "tags": [],
      "authors": [
        {
          "id": "1",
          "name": "John Doe",
          "slug": "john",
          "email": "john.doe@gmail.com",
          "profile_image": "//www.gravatar.com/avatar/2bfa103a13c88b5ffd26da6f982f11df?s=250&d=mm&r=x",
          "cover_image": null,
          "bio": null,
          "website": null,
          "location": null,
          "facebook": null,
          "twitter": null,
          "accessibility": "{\"nightShift\":true}",
          "status": "active",
          "meta_title": null,
          "meta_description": null,
          "tour": null,
          "last_seen": "2022-04-24T08:37:32.000Z",
          "created_at": "2021-10-30T20:34:20.000Z",
          "updated_at": "2022-04-24T08:37:32.000Z",
          "roles": [
            {
              "id": "617dac4ce01e977921bf82a1",
              "name": "Owner",
              "description": "Blog Owner",
              "created_at": "2021-10-30T20:34:20.000Z",
              "updated_at": "2021-10-30T20:34:20.000Z"
            }
          ],
          "url": "http://localhost:2370/author/joe/"
        }
      ],
      "tiers": [],
      "primary_author": {
        "id": "1",
        "name": "John Doe",
        "slug": "john",
        "email": "john.doe@gmail.com",
        "profile_image": "//www.gravatar.com/avatar/2bfa103a13c88b5ffd26da6f982f11df?s=250&d=mm&r=x",
        "cover_image": null,
        "bio": null,
        "website": null,
        "location": null,
        "facebook": null,
        "twitter": null,
        "accessibility": "{\"nightShift\":true}",
        "status": "active",
        "meta_title": null,
        "meta_description": null,
        "tour": null,
        "last_seen": "2022-04-24T08:37:32.000Z",
        "created_at": "2021-10-30T20:34:20.000Z",
        "updated_at": "2022-04-24T08:37:32.000Z",
        "roles": [
          {
            "id": "617dac4ce01e977921bf82a1",
            "name": "Owner",
            "description": "Blog Owner",
            "created_at": "2021-10-30T20:34:20.000Z",
            "updated_at": "2021-10-30T20:34:20.000Z"
          }
        ],
        "url": "http://localhost:2370/author/joe/"
      },
      "primary_tag": null,
      "url": "http://localhost:2370/my-test-post/",
      "excerpt": "My post content. Work in progress...",
      "og_image": null,
      "og_title": null,
      "og_description": null,
      "twitter_image": null,
      "twitter_title": null,
      "twitter_description": null,
      "meta_title": null,
      "meta_description": null,
      "email_subject": null,
      "frontmatter": null,
      "feature_image_alt": null,
      "feature_image_caption": null,
      "email_only": false,
      "email": null
    },
    {
      "id": "617dac4de01e977921bf82c3",
      "uuid": "35bd7f16-74ab-4830-8f79-e94ba9b16463",
      "title": "2 Start here for a quick overview of everything you need to know",
      "slug": "welcome",
      "mobiledoc": "{\"version\":\"0.3.1\",\"atoms\":[],\"cards\":[[\"hr\",{}],[\"hr\",{}]],\"markups\":[[\"strong\"],[\"a\",[\"href\",\"http://localhost:2370/design/\"]],[\"a\",[\"href\",\"http://localhost:2370/write/\"]],[\"a\",[\"href\",\"http://localhost:2370/portal/\"]],[\"a\",[\"href\",\"http://localhost:2370/sell/\"]],[\"a\",[\"href\",\"http://localhost:2370/grow/\"]],[\"a\",[\"href\",\"http://localhost:2370/integrations/\"]],[\"a\",[\"href\",\"https://ghost.org/blog/\"]],[\"a\",[\"href\",\"https://ghost.org/pricing/\"]],[\"em\"],[\"a\",[\"href\",\"https://forum.ghost.org\"]]],\"sections\":[[1,\"p\",[[0,[0],1,\"Igor Hey there\"],[0,[],0,\", welcome to your new home on the web!\"]]],[1,\"p\",[[0,[],0,\"Unlike social networks, this one is all yours. Publish your work on a custom domain, invite your audience to subscribe, send them new content by email newsletter, and offer premium subscriptions to generate sustainable recurring revenue to fund your work.\"]]],[1,\"p\",[[0,[],0,\"Ghost is an independent, open source app, which means you can customize absolutely everything. Inside the admin area, you'll find straightforward controls for changing themes, colors, navigation, logos and settings — so you can set your site up just how you like it. No technical knowledge required.\"]]],[1,\"p\",[[0,[],0,\"If you're feeling a little more adventurous, there's really no limit to what's possible. With just a little bit of HTML and CSS you can modify or build your very own theme from scratch, or connect to Zapier to explore advanced integrations. Advanced developers can go even further and build entirely custom workflows using the Ghost API.\"]]],[1,\"p\",[[0,[],0,\"This level of customization means that Ghost grows with you. It's easy to get started, but there's always another level of what's possible. So, you won't find yourself outgrowing the app in a few months time and wishing you'd chosen something more powerful!\"]]],[10,0],[1,\"p\",[[0,[],0,\"For now, you're probably just wondering what to do first. To help get you going as quickly as possible, we've populated your site with starter content (like this post!) covering all the key concepts and features of the product.\"]]],[1,\"p\",[[0,[],0,\"You'll find an outline of all the different topics below, with links to each section so you can explore the parts that interest you most.\"]]],[1,\"p\",[[0,[],0,\"Once you're ready to begin publishing and want to clear out these starter posts, you can delete the \\\"Ghost\\\" staff user. Deleting an author will automatically remove all of their posts, leaving you with a clean blank canvas.\"]]],[1,\"h2\",[[0,[],0,\"Your guide to Ghost\"]]],[3,\"ul\",[[[0,[1],1,\"Customizing your brand and site settings\"]],[[0,[2],1,\"Writing & managing content, an advanced guide for creators\"]],[[0,[3],1,\"Building your audience with subscriber signups\"]],[[0,[4],1,\"Selling premium memberships with recurring revenue\"]],[[0,[5],1,\"How to grow your business around an audience\"]],[[0,[6],1,\"Setting up custom integrations and apps\"]]]],[1,\"p\",[[0,[],0,\"If you get through all those and you're hungry for more, you can find an extensive library of content for creators over on \"],[0,[7],1,\"the Ghost blog\"],[0,[],0,\".\"]]],[10,1],[1,\"h2\",[[0,[],0,\"Getting help\"]]],[1,\"p\",[[0,[],0,\"If you need help, \"],[0,[8],1,\"Ghost(Pro)\"],[0,[],0,\" customers can always reach our full-time support team by clicking on the \"],[0,[9],1,\"Ghost(Pro)\"],[0,[],0,\" link inside their admin panel.\"]]],[1,\"p\",[[0,[],0,\"If you're a developer working with the codebase in a self-managed install, check out our \"],[0,[10],1,\"developer community forum\"],[0,[],0,\" to chat with other users.\"]]],[1,\"p\",[[0,[],0,\"Have fun!\"]]]]}",
      "comment_id": "617dac4de01e977921bf82c3",
      "feature_image": "https://static.ghost.org/v4.0.0/images/welcome-to-ghost.png",
      "featured": false,
      "status": "published",
      "visibility": "public",
      "email_recipient_filter": "none",
      "created_at": "2021-10-30T20:34:21.000Z",
      "updated_at": "2022-04-21T07:16:16.000Z",
      "published_at": "2021-10-30T20:34:27.000Z",
      "custom_excerpt": "We've crammed the most important information to help you get started with Ghost into this one post. It's your cheat-sheet to get started, and your shortcut to advanced features.",
      "codeinjection_head": null,
      "codeinjection_foot": null,
      "custom_template": null,
      "canonical_url": null,
      "tags": [
        {
          "id": "617dac4ce01e97a921bf8253",
          "name": "Guides",
          "slug": "guides-2",
          "description": null,
          "feature_image": null,
          "visibility": "public",
          "og_image": null,
          "og_title": null,
          "og_description": null,
          "twitter_image": null,
          "twitter_title": null,
          "twitter_description": null,
          "meta_title": null,
          "meta_description": null,
          "codeinjection_head": null,
          "codeinjection_foot": null,
          "canonical_url": null,
          "accent_color": null,
          "created_at": "2021-10-30T20:34:20.000Z",
          "updated_at": "2021-12-19T19:24:07.000Z",
          "url": "http://localhost:2370/tag/guides-2/"
        },
        {
          "id": "6180c4f2e539ec445ca2facj",
          "name": "#Frameworks",
          "slug": "frameworks",
          "description": null,
          "feature_image": "http://localhost:2370/content/images/2021/11/frameworks.svg",
          "visibility": "internal",
          "og_image": null,
          "og_title": null,
          "og_description": null,
          "twitter_image": null,
          "twitter_title": null,
          "twitter_description": null,
          "meta_title": null,
          "meta_description": null,
          "codeinjection_head": null,
          "codeinjection_foot": null,
          "canonical_url": null,
          "accent_color": "#FF2D1F",
          "created_at": "2021-11-02T04:56:18.000Z",
          "updated_at": "2021-12-03T04:25:11.000Z",
          "url": "http://localhost:2370/404/"
        }
      ],
      "authors": [
        {
          "id": "5951f5fca264002abd5dbef8",
          "name": "Ghost",
          "slug": "ghost",
          "email": "ghost-author@example.com",
          "profile_image": "https://static.ghost.org/v4.0.0/images/ghost-user.png",
          "cover_image": null,
          "bio": "You can delete this user to remove all the welcome posts",
          "website": "https://ghost.org",
          "location": "The Internet",
          "facebook": "ghost",
          "twitter": "ghost",
          "accessibility": null,
          "status": "active",
          "meta_title": null,
          "meta_description": null,
          "tour": null,
          "last_seen": null,
          "created_at": "2021-10-30T20:34:21.000Z",
          "updated_at": "2021-10-30T20:34:21.000Z",
          "roles": [
            {
              "id": "617dac4ce01e677921bf8253",
              "name": "Contributor",
              "description": "Contributors",
              "created_at": "2021-10-30T20:34:20.000Z",
              "updated_at": "2021-10-30T20:34:20.000Z"
            }
          ],
          "url": "http://localhost:2370/author/ghost/"
        },
        {
          "id": "1",
          "name": "John Doe",
          "slug": "john",
          "email": "john.doe@gmail.com",
          "profile_image": "//www.gravatar.com/avatar/2bfa103a13c88b5ffd26da6f982f11df?s=250&d=mm&r=x",
          "cover_image": null,
          "bio": null,
          "website": null,
          "location": null,
          "facebook": null,
          "twitter": null,
          "accessibility": "{\"nightShift\":true}",
          "status": "active",
          "meta_title": null,
          "meta_description": null,
          "tour": null,
          "last_seen": "2022-04-24T08:37:32.000Z",
          "created_at": "2021-10-30T20:34:20.000Z",
          "updated_at": "2022-04-24T08:37:32.000Z",
          "roles": [
            {
              "id": "617dac4ce01e977921bf82a1",
              "name": "Owner",
              "description": "Blog Owner",
              "created_at": "2021-10-30T20:34:20.000Z",
              "updated_at": "2021-10-30T20:34:20.000Z"
            }
          ],
          "url": "http://localhost:2370/author/joe/"
        }
      ],
      "tiers": [],
      "primary_author": {
        "id": "5951f5fca264002abd5dbef8",
        "name": "Ghost",
        "slug": "ghost",
        "email": "ghost-author@example.com",
        "profile_image": "https://static.ghost.org/v4.0.0/images/ghost-user.png",
        "cover_image": null,
        "bio": "You can delete this user to remove all the welcome posts",
        "website": "https://ghost.org",
        "location": "The Internet",
        "facebook": "ghost",
        "twitter": "ghost",
        "accessibility": null,
        "status": "active",
        "meta_title": null,
        "meta_description": null,
        "tour": null,
        "last_seen": null,
        "created_at": "2021-10-30T20:34:21.000Z",
        "updated_at": "2021-10-30T20:34:21.000Z",
        "roles": [
          {
            "id": "617dac4ce01e677921bf8253",
            "name": "Contributor",
            "description": "Contributors",
            "created_at": "2021-10-30T20:34:20.000Z",
            "updated_at": "2021-10-30T20:34:20.000Z"
          }
        ],
        "url": "http://localhost:2370/author/ghost/"
      },
      "primary_tag": {
        "id": "617dac4ce01e97a921bf8253",
        "name": "Guides",
        "slug": "guides-2",
        "description": null,
        "feature_image": null,
        "visibility": "public",
        "og_image": null,
        "og_title": null,
        "og_description": null,
        "twitter_image": null,
        "twitter_title": null,
        "twitter_description": null,
        "meta_title": null,
        "meta_description": null,
        "codeinjection_head": null,
        "codeinjection_foot": null,
        "canonical_url": null,
        "accent_color": null,
        "created_at": "2021-10-30T20:34:20.000Z",
        "updated_at": "2021-12-19T19:24:07.000Z",
        "url": "http://localhost:2370/tag/guides-2/"
      },
      "url": "http://localhost:2370/welcome/",
      "excerpt": "We've crammed the most important information to help you get started with Ghost into this one post. It's your cheat-sheet to get started, and your shortcut to advanced features.",
      "og_image": null,
      "og_title": null,
      "og_description": null,
      "twitter_image": null,
      "twitter_title": null,
      "twitter_description": null,
      "meta_title": "Meta here",
      "meta_description": null,
      "email_subject": null,
      "frontmatter": null,
      "feature_image_alt": null,
      "feature_image_caption": null,
      "email_only": false,
      "email": null
    }
  ],
  "meta": {
    "pagination": {
      "page": 1,
      "limit": 2,
      "pages": 4,
      "total": 7,
      "next": 2,
      "prev": null
    }
  }
}
